{
  "project_info": {
    "project_number": "118167918066",
    "project_id": "login-email-senha-edf40",
    "storage_bucket": "login-email-senha-edf40.appspot.com"
  },
  "client": [
    {
      "client_info": {
        "mobilesdk_app_id": "1:118167918066:android:e2da47211d0c49544e476b",
        "android_client_info": {
          "package_name": "com.example.authentication_firebase"
        }
      },
      "oauth_client": [
        {
          "client_id": "118167918066-hl21rfe1o9l8ulgkrisq6032ovriipah.apps.googleusercontent.com",
          "client_type": 3
        }
      ],
      "api_key": [
        {
          "current_key": "AIzaSyBGReD2GEspTvYF2i33Ei0585F14aLvVJk"
        }
      ],
      "services": {
        "appinvite_service": {
          "other_platform_oauth_client": [
            {
              "client_id": "118167918066-hl21rfe1o9l8ulgkrisq6032ovriipah.apps.googleusercontent.com",
              "client_type": 3
            }
          ]
        }
      }
    }
  ],
  "configuration_version": "1"
}